<?xml version="1.0" encoding="UTF-8"?>
<!DOCTYPE svg PUBLIC "-//W3C//DTD SVG 1.1//EN" "http://www.w3.org/Graphics/SVG/1.1/DTD/svg11.dtd">
<!-- Creator: CorelDRAW 2021 (64-Bit) -->
<svg xmlns="http://www.w3.org/2000/svg" xml:space="preserve" width="10.0565in" height="2.55042in" version="1.1" style="shape-rendering:geometricPrecision; text-rendering:geometricPrecision; image-rendering:optimizeQuality; fill-rule:evenodd; clip-rule:evenodd"
viewBox="0 0 10056.47 2550.42"
 xmlns:xlink="http://www.w3.org/1999/xlink"
 xmlns:xodm="http://www.corel.com/coreldraw/odm/2003">
 <defs>
  <style type="text/css">
   <![CDATA[
    .fil1 {fill:black}
    .fil0 {fill:#ED1B23}
   ]]>
  </style>
 </defs>
 <g id="Layer_x0020_1">
  <metadata id="CorelCorpID_0Corel-Layer"/>
  <path class="fil0" d="M588.3 1860.45c-129.15,0 -105.59,-117.3 -105.59,-191.07l0.11 -573.33c0.22,-49.33 -6.83,-83.2 -31.39,-109.4 -22.53,-24.04 -50.92,-50.42 -94.43,-51.39 8.7,-104.51 133.68,-48.45 174.66,-51.56 62.05,-4.71 123.49,-34.97 156.41,-85.01 34.88,-53.04 24.13,-91.24 20.91,-129.93 -3.57,4.11 -4.78,5.35 -9,11.11 -5.32,7.25 -2.9,4.07 -8.11,12 -6.32,9.64 -9.56,15.22 -16.79,23.43 -19.43,22.05 -69.6,56.44 -98.18,62.76 -73.86,16.33 -147.57,-31.75 -226.34,50.18 -21,21.84 -43.83,65.78 -43.83,107.02l-306.72 0 0 25.14c204.63,0 206.16,-3.77 206.16,246.38l4.83 437.66c0.38,30.57 5.38,48.74 5.24,85.26 -0.56,151.46 9.13,276.2 152.94,380.05 75.02,54.17 155.43,75.7 274.12,67.17 95.41,-6.85 186.19,-65.26 238.01,-119 28.67,-29.74 50.22,-68.81 69.12,-106.87 20.51,-41.29 30.33,-83.48 30.1,-145.89 -0.44,-118.98 -0.01,-238.04 -0.01,-357.02 0,-267.6 11.75,-422.72 121.67,-587.31 121.94,-182.6 312.33,-311.78 540.51,-344.46 48.64,-6.96 104.8,-10.46 155.35,-20.64 227.8,-45.89 410.59,-169.02 521.6,-368.41 19.39,-34.84 44.1,-86.16 53.69,-127.32l-143.7 82.57c-28.09,16.81 -44.45,22.12 -74.2,36.42 -137.76,66.22 -303.43,92.86 -476.13,97.09l-203.93 22.34c-119.01,26.45 -258.9,84.54 -353.31,154.54 -12.52,9.28 -22.8,15.66 -35.29,25.06 -63.39,47.72 -124.07,103.02 -174.59,167.33 -110.94,141.24 -176.22,279.81 -211.14,472.7 -25.16,138.98 -18.13,488.93 -17.17,666.67 0.24,44.76 -3.15,68.44 -20.12,95.54 -12.2,19.48 -43.34,40.2 -75.45,40.2z"/>
  <path class="fil1" d="M8009.98 2126.94l276.55 0 32.27 -143.72c10.04,-50.25 88.41,-407.52 88.41,-439.55l10.06 0c0,30.33 70.17,381.74 79.07,433.81l26.52 149.47 266.5 0c22.95,0 30.03,-87.96 40.22,-130.74 11.08,-46.49 21.09,-98.06 30.64,-145.35 19.59,-97.04 40.68,-194.26 60.34,-291.64 35.87,-177.7 80.33,-407.55 120.2,-578.72l-281.58 0c0,26.59 -98.79,481.3 -111.88,546.82 -3.46,17.36 -9.99,62.71 -18.85,76.68l-100.56 -623.5 -281.58 0c-0.52,23.51 -9.8,52.64 -13.86,71.62l-222.47 1074.82z"/>
  <path class="fil0" d="M603.39 2262.7c-157.09,0 -228.21,-59.66 -326.83,-125.7 13.38,57.43 127.97,172.66 186.02,211.2 42.37,28.14 75.82,48.07 130.04,66.06 302.63,100.43 621.61,-74.75 707.89,-329.35 52.49,-154.89 37,-435.71 37,-626.72 0,-67.85 -4.88,-155.58 0.25,-220.99 19.18,-244.65 167.2,-362.59 387.32,-387.03 100.35,-11.15 161.31,-19.8 255.14,-76.73 52.96,-32.13 80.98,-54.84 122.95,-98.3 68.61,-71.06 134.4,-217.9 134.4,-313.11 -42.35,28.37 -102.82,119.68 -260.82,176.64 -57.34,20.67 -103.05,35.21 -174.31,46.93 -120.17,19.77 -205.31,-6.46 -367.73,74.76 -203.15,101.58 -332.82,294.04 -362.38,522.58 -12.56,97.05 10.51,564.57 -5.54,658.19 -29.89,174.24 -121.23,311.09 -284.46,379.27 -27.01,11.28 -52.56,21.12 -82.27,28.35 -20.9,5.08 -70.1,13.96 -96.66,13.96z"/>
  <path class="fil1" d="M3127.56 1463.22l-206.16 0c1.66,-19.97 11.53,-56.47 17.07,-78.47l36.21 -154.86c6.25,-24.69 15.07,-53.77 17.12,-78.42l211.19 0 -75.43 311.75zm-653.67 663.73l291.64 0 98.55 -394.22c5.87,-23.5 11.07,-44.27 16.09,-64.36 19.76,-79.22 -24.15,-59.33 217.23,-59.33 0,39.84 -116.48,467.49 -120.68,517.91l306.72 0 261.47 -1146.44c-78.32,0 -636.69,-7.04 -683.03,5.84 -118.96,33.06 -146.56,149.79 -170.76,246.59l-162.93 666.73c-8.75,34.99 -20.53,77.84 -27.91,112.88 -7.48,35.58 -23.78,82.95 -26.39,114.4z"/>
  <path class="fil1" d="M9644.16 1463.22l-206.16 0c0.57,-25.85 63.02,-280.11 70.39,-311.75l211.19 0c-5.37,11.19 -15.53,62.17 -19.1,76.44l-37.46 153.61c-4.76,22.65 -16.84,57.39 -18.86,81.7zm-653.67 663.73l291.63 0 31.19 -129.72c13.2,-52.82 93.91,-360.7 94.52,-388.19l206.16 0 -107.61 450.53c-5.83,23.26 -13.07,41.72 -13.07,67.38l306.72 0c76.78,-329.54 148.24,-672.6 225.27,-1001.62 5.74,-24.5 10.55,-46.5 16.14,-69.34 4.55,-18.58 14.6,-56.03 15.03,-75.48l-648.64 0c-49.34,0 -99.2,39.39 -124.54,66.54 -59.67,63.93 -78.51,197.57 -101.74,290.47 -13.31,53.23 -25.41,101.31 -38.23,157.87 -39.9,176.07 -96.84,374.27 -134.85,548.98 -5.74,26.4 -17.41,56.75 -17.99,82.57z"/>
  <path class="fil1" d="M4716.48 1583.89l-216.21 0c0,-24.58 7.54,-52.33 12.18,-78.33l67.14 -345.17c5.5,-23.11 2.9,-19.29 30.73,-19.55 61.78,-0.59 124.65,0.57 186.62,0.57l-41.61 219.86c-7.71,44.9 -38.85,187.3 -38.85,222.62zm-653.67 543.05l296.67 0c14.01,-60.12 28.01,-119.74 40.63,-180.61 6.78,-32.66 39.31,-158.85 39.82,-181.43 44.9,0 58.61,11.64 72.48,68.31 9.04,36.91 16.77,62.83 26.02,99.69l40.29 150.79c4.6,19.38 3.78,43.25 22.12,43.25l281.58 0c0,-30.4 -66.57,-241.52 -79.86,-287.2 -7.77,-26.69 -25.11,-72.11 -25.74,-99.97 77.68,0 135.78,-23.56 170.96,-85.48 13.39,-23.56 38.94,-148.87 46.5,-184.8 5.88,-27.92 13.87,-62.17 21.89,-93.76 8.33,-32.81 14,-64.74 21.06,-94.59 7.61,-32.16 14.6,-61.28 22.21,-93.44 5.81,-24.54 19.06,-73.11 19.06,-101.61 0,-58.76 -38.3,-105.59 -95.54,-105.59l-653.67 0c-18.22,0 -16.37,20.46 -24.72,60.75 -5.62,27.09 -10.76,45.52 -16.76,73.75l-129.48 574.48c-9.54,40.35 -95.54,411.52 -95.54,437.46z"/>
  <path class="fil1" d="M6411 2126.94l296.67 0c12.54,-26.15 90.59,-397.98 106.56,-461.63 4.53,-18.06 13.61,-48.69 14.11,-71.36l216.21 0 -115.65 532.99 296.67 0 64.95 -282c19.87,-95.52 44.6,-193.97 64.52,-287.45 20.99,-98.52 41.94,-189.28 63.74,-288.24l47.73 -213.74c5.02,-24.02 13.5,-50.91 15.5,-75.01l-266.94 -0.44c-31.34,-0.31 -29.88,-4.8 -35.83,19.48 -7.04,28.72 -12.83,59.85 -20.09,90.54 -27.37,115.62 -52.26,236.52 -79.41,353.02l-216.21 0c9.79,-20.4 94,-438.43 105.59,-462.59l-261.64 -0.18c-51.14,-0.87 -38.69,-12.78 -63.05,97.85 -26.18,118.88 -50.09,233.63 -77.56,349.84 -13.65,57.75 -24.59,112.98 -38.26,172.93l-117.61 526z"/>
  <path class="fil1" d="M5425.46 1976.1c0,86.71 49.82,150.85 135.76,150.85l427.4 0c148.51,0 213.06,-70.88 236.74,-185.63l49.87 -206.57 -306.72 0 -46.06 195.3c-15.13,57.12 -57.19,41.03 -170.16,41.03 -81.06,0 -44.69,-73.91 -29.76,-145.4l113.98 -514.56c7.89,-37.04 14.84,-66.02 22.62,-103.08 18.28,-87.04 16.42,-71.65 189.82,-71.65 18.23,0 28.07,4.22 40.22,10.06 9.7,41.66 -42.89,243.35 -55.31,296.67l296.67 0c11.76,-50.5 19.59,-105.31 29.7,-156.34 15.47,-78.09 25.61,-101.12 25.61,-185.57 0,-61.96 -44.96,-120.68 -105.59,-120.68l-517.91 0c-41.76,0 -87.94,35.3 -105.69,60.24 -21.52,30.26 -43.62,68.25 -53.13,112.8 -20.12,94.19 -38.92,178.73 -59.54,272.33 -7.3,33.14 -118.54,515.46 -118.54,550.22z"/>
  <path class="fil0" d="M804.52 2514.12c-98.78,0 -134.4,-14.16 -175.99,-15.08 5.29,4.59 -0.31,1.96 12.15,7.96 176.97,85.21 529.5,35.6 692.84,-67.26 137.91,-86.84 255.6,-244.2 292.67,-406.26 8.29,-36.26 10.26,-60.19 15.96,-99.69 6.31,-43.68 2.37,-391.7 2.07,-465.55 -0.71,-180.28 141.69,-141.07 172.48,-107.08 50.01,55.2 22.26,137.26 -16.59,137.26 -67.97,0 -43.78,-34.24 -60.34,-60.34 -3.52,15.12 -10.06,37.86 -10.06,55.31 0,88.09 83.51,165.93 170.96,165.93 74.04,0 121.26,-12.56 163.79,-77.56 72.35,-110.56 54.87,-252.94 -14.88,-357.96 -8.33,-12.55 -9.83,-15.11 -19.45,-25.8 -9.33,-10.37 -12.08,-15.96 -20.26,-24.99 -55.63,-61.46 -159.55,-101.98 -249.99,-101.98 -178.94,0 -300.69,124.24 -337.01,266.38 -20.79,81.34 -8.3,471.38 -9.74,588.62 -0.48,39 -9.61,93.43 -18.27,127.55 -11.16,43.98 -21.6,74.58 -38.88,111.96 -15.33,33.17 -36.26,65.02 -56.59,94.25 -92.93,133.63 -295.45,254.33 -494.87,254.33zm-175.99 -20.11l-1.5 1.5c0.1,-0.1 2,-1 1.5,-1.5z"/>
  <path class="fil1" d="M3529.82 2126.94l296.67 0 261.47 -1146.44 -261.65 -0.18c-47.64,-0.81 -39.88,-7.84 -53,52.59l-87.62 395.09c-54.72,231.49 -101.78,466.73 -155.87,698.93z"/>
  <path class="fil1" d="M7466.93 2126.94l296.67 0 256.44 -1146.44 -301.69 0c-0.43,19.27 -10.14,54.54 -14.09,71.39 -5.68,24.24 -10.95,47.22 -15.67,69.81 -10.3,49.28 -21.13,93.87 -31.84,144.15l-175.78 784.61c-4.56,19.25 -14.04,53.13 -14.04,76.47z"/>
 </g>
</svg>
